{
    "source": {
        "include": ["src", "README.md"],
        "includePattern": ".+\\.js(doc|x)?$"
    },
    "opts": {
        "destination": "./docs/",          
        "recurse": true,
        "template": "node_modules/better-docs"
    },
    "tags": {
        "allowUnknownTags": ["category"]
    },
    "plugins": [
        "node_modules/better-docs/category"
    ]
}